…
Both are categorical data. Here is a summary for "X\_state" with frequency and percent. We can see 2 people answered "0" and "80" for their states, and we'll filter them out later.

``` r
total_obs <- dim(brfss2013)[1]

brfss2013 %>%
  group_by(X_state) %>%
  summarise(count = n(), percent = round(count/total_obs*100, 2)) %>%
  arrange(desc(-count))
```

    ## # A tibble: 55 x 3
    ##                 X_state count percent
    ##                  <fctr> <int>   <dbl>
    ##  1                    0     1    0.00
    ##  2                   80     1    0.00
    ##  3                 Guam  1897    0.39
    ##  4              Arizona  4253    0.86
    ##  5               Alaska  4578    0.93
    ##  6 District of Columbia  4931    1.00
    ##  7               Nevada  5101    1.04
    ##  8             Delaware  5206    1.06
    ##  9            Louisiana  5215    1.06
    ## 10             Arkansas  5268    1.07
    ## # ... with 45 more rows
…
Q2_inc_brfss2013 <- Q2_inc_brfss2013 %>%
  group_by(genhlth, X_incomg) %>%
  mutate(percent_inc_gh = round(n()/total_genhlth*100, 2)) 

Q2_inc_brfss2013 <- Q2_inc_brfss2013 %>%
  group_by(genhlth, X_incomg, percent_inc_gh) %>%
  summarise()

Q2_inc_brfss2013
```

    ## # A tibble: 25 x 3
    ## # Groups:   genhlth, X_incomg [?]
    ##      genhlth                     X_incomg percent_inc_gh
    ##       <fctr>                       <fctr>          <dbl>
    ##  1 Excellent            Less than $15,000           5.99
    ##  2 Excellent $15,000 to less than $25,000          11.14
    ##  3 Excellent $25,000 to less than $35,000           8.78
    ##  4 Excellent $35,000 to less than $50,000          13.43
    ##  5 Excellent              $50,000 or more          60.66
    ##  6 Very good            Less than $15,000           6.18
    ##  7 Very good $15,000 to less than $25,000          13.22
    ##  8 Very good $25,000 to less than $35,000          10.66
    ##  9 Very good $35,000 to less than $50,000          15.67
    ## 10 Very good              $50,000 or more          54.26
    ## # ... with 15 more rows
…
